"smile - Copy.png",sfdf,23,prado.raymart0121@gmail.com,asdasd
"smile - Copy.png",sfdf,23,prado.raymart0121@gmail.com,asdasd
"smile - Copy.png",sfdf,23,prado.raymart0121@gmail.com,asdasd
"smile - Copy.png",sfdf,23,prado.raymart0121@gmail.com,asdasd
"smile - Copy.png",sfdf,23,prado.raymart0121@gmail.com,asdasd
"smile - Copy.png",sfdf,23,prado.raymart0121@gmail.com,asdasd
"smile - Copy.png",sfdf,23,prado.raymart0121@gmail.com,asdasd
"smile - Copy.png",sfdf,23,prado.raymart0121@gmail.com,asdasd
"smile - Copy.png",sfdf,23,prado.raymart0121@gmail.com,asdasd
"smile - Copy.png",sfdf,23,prado.raymart0121@gmail.com,asdasd
"smile - Copy.png",sfdf,23,prado.raymart0121@gmail.com,asdasd
"smile - Copy.png",sfdf,23,prado.raymart0121@gmail.com,asdasd
"smile - Copy.png",sfdf,23,prado.raymart0121@gmail.com,asdasd
"smile - Copy.png",sfdf,23,prado.raymart0121@gmail.com,asdasd
"smile - Copy.png",sfdf,23,prado.raymart0121@gmail.com,asdasd
"smile - Copy.png",sfdf,23,prado.raymart0121@gmail.com,asdasd
"smile - Copy.png",sfdf,23,prado.raymart0121@gmail.com,asdasd
"smile - Copy.png",sfdf,23,prado.raymart0121@gmail.com,asdasd
"smile - Copy.png",sfdf,23,prado.raymart0121@gmail.com,asdasd
"smile - Copy.png",sfdf,23,prado.raymart0121@gmail.com,asdasd
love2.png,raymart,23,prado.raymart0121@gmail.com,asdasd
